Taller: elaboración de informes – Introducción a R
…
summarise()

Data frames

*_join()

dplyr — filas: arrange()

arrange() Ordena las filas utilizando los valores de las columnas

palmerpenguins::penguins |> 
  dplyr::arrange(island)

# A tibble: 344 × 8
   species island bill_length_mm bill_depth_mm flipper_length_mm body_mass_g
   <fct>   <fct>           <dbl>         <dbl>             <int>       <int>
 1 Adelie  Biscoe           37.8          18.3               174        3400
 2 Adelie  Biscoe           37.7          18.7               180        3600
 3 Adelie  Biscoe           35.9          19.2               189        3800
 4 Adelie  Biscoe           38.2          18.1               185        3950
 5 Adelie  Biscoe           38.8          17.2               180        3800
 6 Adelie  Biscoe           35.3          18.9               187        3800
 7 Adelie  Biscoe           40.6          18.6               183        3550
 8 Adelie  Biscoe           40.5          17.9               187        3200
 9 Adelie  Biscoe           37.9          18.6               172        3150
10 Adelie  Biscoe           40.5          18.9               180        3950
# ℹ 334 more rows
# ℹ 2 more variables: sex <fct>, year <int>

Para ordenar de mayor a menor se ha de usar dplyr::desc() dentro de dplyr::arrange().

palmerpenguins::penguins |> 
  dplyr::arrange(dplyr::desc(island))

# A tibble: 344 × 8
   species island    bill_length_mm bill_depth_mm flipper_length_mm body_mass_g
   <fct>   <fct>              <dbl>         <dbl>             <int>       <int>
 1 Adelie  Torgersen           39.1          18.7               181        3750
 2 Adelie  Torgersen           39.5          17.4               186        3800
 3 Adelie  Torgersen           40.3          18                 195        3250
 4 Adelie  Torgersen           NA            NA                  NA          NA
 5 Adelie  Torgersen           36.7          19.3               193        3450
 6 Adelie  Torgersen           39.3          20.6               190        3650
 7 Adelie  Torgersen           38.9          17.8               181        3625
 8 Adelie  Torgersen           39.2          19.6               195        4675
 9 Adelie  Torgersen           34.1          18.1               193        3475
10 Adelie  Torgersen           42            20.2               190        4250
# ℹ 334 more rows
# ℹ 2 more variables: sex <fct>, year <int>
…
# A tibble: 3 × 1
  island   
  <fct>    
1 Torgersen
2 Biscoe   
3 Dream    

dplyr — filas: filter()

filter() Mantiene las filas que cumplen una condición

palmerpenguins::penguins |> 
  dplyr::filter(island == "Dream")

# A tibble: 124 × 8
   species island bill_length_mm bill_depth_mm flipper_length_mm body_mass_g
   <fct>   <fct>           <dbl>         <dbl>             <int>       <int>
 1 Adelie  Dream            39.5          16.7               178        3250
 2 Adelie  Dream            37.2          18.1               178        3900
 3 Adelie  Dream            39.5          17.8               188        3300
 4 Adelie  Dream            40.9          18.9               184        3900
 5 Adelie  Dream            36.4          17                 195        3325
 6 Adelie  Dream            39.2          21.1               196        4150
 7 Adelie  Dream            38.8          20                 190        3950
 8 Adelie  Dream            42.2          18.5               180        3550
 9 Adelie  Dream            37.6          19.3               181        3300
10 Adelie  Dream            39.8          19.1               184        4650
# ℹ 114 more rows
# ℹ 2 more variables: sex <fct>, year <int>
…
dplyr — columnas: mutate()

mutate() Crear, modificar y eliminar columnas

palmerpenguins::penguins |> 
  dplyr::mutate(
    volume = (pi * bill_depth_mm * bill_length_mm) / 3,
    .after = bill_depth_mm
  )

# A tibble: 344 × 9
   species island    bill_length_mm bill_depth_mm volume flipper_length_mm
   <fct>   <fct>              <dbl>         <dbl>  <dbl>             <int>
 1 Adelie  Torgersen           39.1          18.7   766.               181
 2 Adelie  Torgersen           39.5          17.4   720.               186
 3 Adelie  Torgersen           40.3          18     760.               195
 4 Adelie  Torgersen           NA            NA      NA                 NA
 5 Adelie  Torgersen           36.7          19.3   742.               193
 6 Adelie  Torgersen           39.3          20.6   848.               190
 7 Adelie  Torgersen           38.9          17.8   725.               181
 8 Adelie  Torgersen           39.2          19.6   805.               195
 9 Adelie  Torgersen           34.1          18.1   646.               193
10 Adelie  Torgersen           42            20.2   888.               190
# ℹ 334 more rows
# ℹ 3 more variables: body_mass_g <int>, sex <fct>, year <int>
…
dplyr — columnas: relocate()

relocate() Cambiar el orden de las columnas

palmerpenguins::penguins |> 
  dplyr::relocate(
    year,
    sex
  )

# A tibble: 344 × 8
    year sex    species island    bill_length_mm bill_depth_mm flipper_length_mm
   <int> <fct>  <fct>   <fct>              <dbl>         <dbl>             <int>
 1  2007 male   Adelie  Torgersen           39.1          18.7               181
 2  2007 female Adelie  Torgersen           39.5          17.4               186
 3  2007 female Adelie  Torgersen           40.3          18                 195
 4  2007 <NA>   Adelie  Torgersen           NA            NA                  NA
 5  2007 female Adelie  Torgersen           36.7          19.3               193
 6  2007 male   Adelie  Torgersen           39.3          20.6               190
 7  2007 female Adelie  Torgersen           38.9          17.8               181
 8  2007 male   Adelie  Torgersen           39.2          19.6               195
 9  2007 <NA>   Adelie  Torgersen           34.1          18.1               193
10  2007 <NA>   Adelie  Torgersen           42            20.2               190
# ℹ 334 more rows
# ℹ 1 more variable: body_mass_g <int>

dplyr::relocate() tiene dos argumentos muy útiles .before y .after.

dplyr — columnas: rename()

rename() Renombrar columnas

palmerpenguins::penguins |> 
  dplyr::rename(
    Pygoscelis = species
  )

# A tibble: 344 × 8
   Pygoscelis island  bill_length_mm bill_depth_mm flipper_length_mm body_mass_g
   <fct>      <fct>            <dbl>         <dbl>             <int>       <int>
 1 Adelie     Torger…           39.1          18.7               181        3750
 2 Adelie     Torger…           39.5          17.4               186        3800
 3 Adelie     Torger…           40.3          18                 195        3250
 4 Adelie     Torger…           NA            NA                  NA          NA
 5 Adelie     Torger…           36.7          19.3               193        3450
 6 Adelie     Torger…           39.3          20.6               190        3650
 7 Adelie     Torger…           38.9          17.8               181        3625
 8 Adelie     Torger…           39.2          19.6               195        4675
 9 Adelie     Torger…           34.1          18.1               193        3475
10 Adelie     Torger…           42            20.2               190        4250
# ℹ 334 more rows
# ℹ 2 more variables: sex <fct>, year <int>
…
rename_with() renombra columnas utilizando una función.

Si se tiene un montón de columnas con nombres inconsistentes y sería complicado corregirlas todas manualmente, consulte janitor::clean_names().

dplyr — columnas: select()

select() Mantener o eliminar columnas utilizando sus nombres y tipos

palmerpenguins::penguins |> 
  dplyr::select(
    species,
    sex
  )

# A tibble: 344 × 2
   species sex   
   <fct>   <fct> 
 1 Adelie  male  
 2 Adelie  female
 3 Adelie  female
 4 Adelie  <NA>  
 5 Adelie  female
 6 Adelie  male  
 7 Adelie  female
 8 Adelie  male  
 9 Adelie  <NA>  
10 Adelie  <NA>  
# ℹ 334 more rows
…
palmerpenguins::penguins |> 
  dplyr::rename(
    pygoscelis = species
  ) |> 
  dplyr::mutate(
    volume = (pi * bill_depth_mm * bill_length_mm) / 3,
  ) |> 
  dplyr::select(
    pygoscelis,
    volume,
    body_mass_g:sex
  )

# A tibble: 344 × 4
   pygoscelis volume body_mass_g sex   
   <fct>       <dbl>       <int> <fct> 
 1 Adelie       766.        3750 male  
 2 Adelie       720.        3800 female
 3 Adelie       760.        3250 female
 4 Adelie        NA           NA <NA>  
 5 Adelie       742.        3450 female
 6 Adelie       848.        3650 male  
 7 Adelie       725.        3625 female
 8 Adelie       805.        4675 male  
 9 Adelie       646.        3475 <NA>  
10 Adelie       888.        4250 <NA>  
# ℹ 334 more rows
…
Al utilizar sort = TRUE como argumento, se mostrará los grupos más grandes en la parte superior.

dplyr::add_count() y dplyr::add_tally() son equivalentes a dplyr::count() y dplyr::tally() pero utilizan dplyr::mutate() en lugar de dplyr::summarise() para añadir una nueva columna con recuentos por grupos.

dplyr — grupos: group_by()

group_by() Agrupar por una o varias variables

palmerpenguins::penguins |> 
  dplyr::group_by(
    species,
    island
  )

# A tibble: 344 × 8
# Groups:   species, island [5]
   species island    bill_length_mm bill_depth_mm flipper_length_mm body_mass_g
   <fct>   <fct>              <dbl>         <dbl>             <int>       <int>
 1 Adelie  Torgersen           39.1          18.7               181        3750
 2 Adelie  Torgersen           39.5          17.4               186        3800
 3 Adelie  Torgersen           40.3          18                 195        3250
 4 Adelie  Torgersen           NA            NA                  NA          NA
 5 Adelie  Torgersen           36.7          19.3               193        3450
 6 Adelie  Torgersen           39.3          20.6               190        3650
 7 Adelie  Torgersen           38.9          17.8               181        3625
 8 Adelie  Torgersen           39.2          19.6               195        4675
 9 Adelie  Torgersen           34.1          18.1               193        3475
10 Adelie  Torgersen           42            20.2               190        4250
# ℹ 334 more rows
# ℹ 2 more variables: sex <fct>, year <int>
…
